{
  "tagfile": {
    "compound": [
      {
        "@kind": "class",
        "name": {
          "$": "KBreadcrumbSelectionModel"
        },
        "filename": {
          "$": "classKBreadcrumbSelectionModel.html"
        }
      },
      {
        "@kind": "class",
        "name": {
          "$": "KCheckableProxyModel"
        },
        "filename": {
          "$": "classKCheckableProxyModel.html"
        },
        "base": {
          "$": "QIdentityProxyModel"
        },
        "member": {
          "@kind": "function",
          "type": {
            "$": "QHash< int, QByteArray >"
          },
          "name": {
            "$": "roleNames"
          },
          "anchorfile": {
            "$": "classKCheckableProxyModel.html"
          },
          "anchor": {
            "$": "aff60662217b3e6498bb266a21b8e61e9"
          },
          "arglist": {
            "$": "() const override"
          }
        }
      },
      {
        "@kind": "class",
        "name": {
          "$": "KColumnHeadersModel"
        },
        "filename": {
          "$": "classKColumnHeadersModel.html"
        },
        "base": {
          "$": "QAbstractListModel"
        }
      },
      {
        "@kind": "class",
        "name": {
          "$": "KConcatenateRowsProxyModel"
        },
        "filename": {
          "$": "classKConcatenateRowsProxyModel.html"
        },
        "base": {
          "$": "QAbstractItemModel"
        },
        "member": [
          {
            "@kind": "function",
            "type": {},
            "name": {
              "$": "KConcatenateRowsProxyModel"
            },
            "anchorfile": {
              "$": "classKConcatenateRowsProxyModel.html"
            },
            "anchor": {
              "$": "aea02e0679db4c1cb357107c5dd22a5f4"
            },
            "arglist": {
              "$": "(QObject *parent=nullptr)"
            }
          },
          {
            "@kind": "function",
            "type": {},
            "name": {
              "$": "~KConcatenateRowsProxyModel"
            },
            "anchorfile": {
              "$": "classKConcatenateRowsProxyModel.html"
            },
            "anchor": {
              "$": "a8f6a2591b23cd1abf281f4d278ce2e2f"
            },
            "arglist": {
              "$": "() override"
            }
          },
          {
            "@kind": "function",
            "type": {
              "$": "Q_SCRIPTABLE void"
            },
            "name": {
              "$": "addSourceModel"
            },
            "anchorfile": {
              "$": "classKConcatenateRowsProxyModel.html"
            },
            "anchor": {
              "$": "ae9dd4add39e2b1971c36e63ee39c5483"
            },
            "arglist": {
              "$": "(QAbstractItemModel *sourceModel)"
            }
          },
          {
            "@kind": "function",
            "type": {
              "$": "int"
            },
            "name": {
              "$": "columnCount"
            },
            "anchorfile": {
              "$": "classKConcatenateRowsProxyModel.html"
            },
            "anchor": {
              "$": "a7be1a1a621e94d4d78eda0cd2f5e1bd2"
            },
            "arglist": {
              "$": "(const QModelIndex &parent=QModelIndex()) const override"
            }
          },
          {
            "@kind": "function",
            "type": {
              "$": "QVariant"
            },
            "name": {
              "$": "data"
            },
            "anchorfile": {
              "$": "classKConcatenateRowsProxyModel.html"
            },
            "anchor": {
              "$": "a7020bdbed38bc36a701ad9a6d016281b"
            },
            "arglist": {
              "$": "(const QModelIndex &index, int role=Qt::DisplayRole) const override"
            }
          },
          {
            "@kind": "function",
            "type": {
              "$": "Qt::ItemFlags"
            },
            "name": {
              "$": "flags"
            },
            "anchorfile": {
              "$": "classKConcatenateRowsProxyModel.html"
            },
            "anchor": {
              "$": "a46d2232aa391e6d593c5ef9e0090405e"
            },
            "arglist": {
              "$": "(const QModelIndex &index) const override"
            }
          },
          {
            "@kind": "function",
            "type": {
              "$": "QVariant"
            },
            "name": {
              "$": "headerData"
            },
            "anchorfile": {
              "$": "classKConcatenateRowsProxyModel.html"
            },
            "anchor": {
              "$": "a02a71789abe5b3f1b94a556207585985"
            },
            "arglist": {
              "$": "(int section, Qt::Orientation orientation, int role=Qt::DisplayRole) const override"
            }
          },
          {
            "@kind": "function",
            "type": {
              "$": "QModelIndex"
            },
            "name": {
              "$": "index"
            },
            "anchorfile": {
              "$": "classKConcatenateRowsProxyModel.html"
            },
            "anchor": {
              "$": "a389e9c6f4a30db5b1a10c3c0b2b3e2a4"
            },
            "arglist": {
              "$": "(int row, int column, const QModelIndex &parent=QModelIndex()) const override"
            }
          },
          {
            "@kind": "function",
            "type": {
              "$": "QMap< int, QVariant >"
            },
            "name": {
              "$": "itemData"
            },
            "anchorfile": {
              "$": "classKConcatenateRowsProxyModel.html"
            },
            "anchor": {
              "$": "a616a5fe6e1456d17de6e78fd9d7fd4c2"
            },
            "arglist": {
              "$": "(const QModelIndex &proxyIndex) const override"
            }
          },
          {
            "@kind": "function",
            "type": {
              "$": "QModelIndex"
            },
            "name": {
              "$": "mapFromSource"
            },
            "anchorfile": {
              "$": "classKConcatenateRowsProxyModel.html"
            },
            "anchor": {
              "$": "a57d67c52780238d94f0f51d2f147ffcd"
            },
            "arglist": {
              "$": "(const QModelIndex &sourceIndex) const"
            }
          },
          {
            "@kind": "function",
            "type": {
              "$": "QModelIndex"
            },
            "name": {
              "$": "mapToSource"
            },
            "anchorfile": {
              "$": "classKConcatenateRowsProxyModel.html"
            },
            "anchor": {
              "$": "a2a27fa66bc1a76e7869ff15ae672db27"
            },
            "arglist": {
              "$": "(const QModelIndex &proxyIndex) const"
            }
          },
          {
            "@kind": "function",
            "type": {
              "$": "QModelIndex"
            },
            "name": {
              "$": "parent"
            },
            "anchorfile": {
              "$": "classKConcatenateRowsProxyModel.html"
            },
            "anchor": {
              "$": "aaca8a1f57cead6d5be1266873941d937"
            },
            "arglist": {
              "$": "(const QModelIndex &index) const override"
            }
          },
          {
            "@kind": "function",
            "type": {
              "$": "Q_SCRIPTABLE void"
            },
            "name": {
              "$": "removeSourceModel"
            },
            "anchorfile": {
              "$": "classKConcatenateRowsProxyModel.html"
            },
            "anchor": {
              "$": "ad744ed86fe908077ff0f6873fb74651a"
            },
            "arglist": {
              "$": "(QAbstractItemModel *sourceModel)"
            }
          },
          {
            "@kind": "function",
            "type": {
              "$": "QHash< int, QByteArray >"
            },
            "name": {
              "$": "roleNames"
            },
            "anchorfile": {
              "$": "classKConcatenateRowsProxyModel.html"
            },
            "anchor": {
              "$": "ae3ec54db086ec1e682eff1d8cbbf224c"
            },
            "arglist": {
              "$": "() const override"
            }
          },
          {
            "@kind": "function",
            "type": {
              "$": "int"
            },
            "name": {
              "$": "rowCount"
            },
            "anchorfile": {
              "$": "classKConcatenateRowsProxyModel.html"
            },
            "anchor": {
              "$": "a99f2b92c20ef044a563f2060e965172d"
            },
            "arglist": {
              "$": "(const QModelIndex &parent=QModelIndex()) const override"
            }
          },
          {
            "@kind": "function",
            "type": {
              "$": "bool"
            },
            "name": {
              "$": "setData"
            },
            "anchorfile": {
              "$": "classKConcatenateRowsProxyModel.html"
            },
            "anchor": {
              "$": "a2a19ed32f1a1267960b6a1d50242e90e"
            },
            "arglist": {
              "$": "(const QModelIndex &index, const QVariant &value, int role=Qt::DisplayRole) override"
            }
          },
          {
            "@kind": "function",
            "type": {
              "$": "QList< QAbstractItemModel * >"
            },
            "name": {
              "$": "sources"
            },
            "anchorfile": {
              "$": "classKConcatenateRowsProxyModel.html"
            },
            "anchor": {
              "$": "a005a1c12580faa02d0755a115fba7de9"
            },
            "arglist": {
              "$": "() const"
            }
          }
        ]
      },
      {
        "@kind": "class",
        "name": {
          "$": "KDescendantsProxyModel"
        },
        "filename": {
          "$": "classKDescendantsProxyModel.html"
        },
        "base": {
          "$": "QAbstractProxyModel"
        },
        "member": [
          {
            "@kind": "property",
            "type": {
              "$": "QString"
            },
            "name": {
              "$": "ancestorSeparator"
            },
            "anchorfile": {
              "$": "classKDescendantsProxyModel.html"
            },
            "anchor": {
              "$": "ab805c198b9afe408d5a72958d1b5acba"
            },
            "arglist": {}
          },
          {
            "@kind": "property",
            "type": {
              "$": "bool"
            },
            "name": {
              "$": "displayAncestorData"
            },
            "anchorfile": {
              "$": "classKDescendantsProxyModel.html"
            },
            "anchor": {
              "$": "a2fa6902dffdc7e9cf86a1596398055c9"
            },
            "arglist": {}
          },
          {
            "@kind": "property",
            "type": {
              "$": "bool"
            },
            "name": {
              "$": "expandsByDefault"
            },
            "anchorfile": {
              "$": "classKDescendantsProxyModel.html"
            },
            "anchor": {
              "$": "a8313e39b0e77f98c7d87fac4913653d7"
            },
            "arglist": {}
          },
          {
            "@kind": "property",
            "type": {
              "$": "QAbstractItemModel"
            },
            "name": {
              "$": "model"
            },
            "anchorfile": {
              "$": "classKDescendantsProxyModel.html"
            },
            "anchor": {
              "$": "a4c46a339af53ce16f9baca4cbd3ac201"
            },
            "arglist": {}
          },
          {
            "@kind": "function",
            "type": {},
            "name": {
              "$": "KDescendantsProxyModel"
            },
            "anchorfile": {
              "$": "classKDescendantsProxyModel.html"
            },
            "anchor": {
              "$": "a12a91513768e0db86264a9a57832e17c"
            },
            "arglist": {
              "$": "(QObject *parent=nullptr)"
            }
          },
          {
            "@kind": "function",
            "type": {},
            "name": {
              "$": "~KDescendantsProxyModel"
            },
            "anchorfile": {
              "$": "classKDescendantsProxyModel.html"
            },
            "anchor": {
              "$": "a1f27653ab9df10bc9f5f9081315264da"
            },
            "arglist": {
              "$": "() override"
            }
          },
          {
            "@kind": "function",
            "type": {
              "$": "QString"
            },
            "name": {
              "$": "ancestorSeparator"
            },
            "anchorfile": {
              "$": "classKDescendantsProxyModel.html"
            },
            "anchor": {
              "$": "afaec76662c6bb31ef46dfc46c2354aff"
            },
            "arglist": {
              "$": "() const"
            }
          },
          {
            "@kind": "function",
            "type": {
              "$": "void"
            },
            "name": {
              "$": "collapseSourceIndex"
            },
            "anchorfile": {
              "$": "classKDescendantsProxyModel.html"
            },
            "anchor": {
              "$": "a3bd0e29ac667fee278abdf669297b66e"
            },
            "arglist": {
              "$": "(const QModelIndex &sourceIndex)"
            }
          },
          {
            "@kind": "function",
            "type": {
              "$": "bool"
            },
            "name": {
              "$": "displayAncestorData"
            },
            "anchorfile": {
              "$": "classKDescendantsProxyModel.html"
            },
            "anchor": {
              "$": "af94959bf9a40aaee8dca150a0e77955f"
            },
            "arglist": {
              "$": "() const"
            }
          },
          {
            "@kind": "function",
            "type": {
              "$": "bool"
            },
            "name": {
              "$": "expandsByDefault"
            },
            "anchorfile": {
              "$": "classKDescendantsProxyModel.html"
            },
            "anchor": {
              "$": "aba6e7260281114dd589594836706a476"
            },
            "arglist": {
              "$": "() const"
            }
          },
          {
            "@kind": "function",
            "type": {
              "$": "void"
            },
            "name": {
              "$": "expandSourceIndex"
            },
            "anchorfile": {
              "$": "classKDescendantsProxyModel.html"
            },
            "anchor": {
              "$": "a747bbd3f9262b8043ac3a3f708bf9206"
            },
            "arglist": {
              "$": "(const QModelIndex &sourceIndex)"
            }
          },
          {
            "@kind": "function",
            "type": {
              "$": "bool"
            },
            "name": {
              "$": "isSourceIndexExpanded"
            },
            "anchorfile": {
              "$": "classKDescendantsProxyModel.html"
            },
            "anchor": {
              "$": "a5f1accfcfbee0cc8e0fa3238cdeedcaf"
            },
            "arglist": {
              "$": "(const QModelIndex &sourceIndex) const"
            }
          },
          {
            "@kind": "function",
            "type": {
              "$": "bool"
            },
            "name": {
              "$": "isSourceIndexVisible"
            },
            "anchorfile": {
              "$": "classKDescendantsProxyModel.html"
            },
            "anchor": {
              "$": "a7f833865f29190181ffe2e6579bf0688"
            },
            "arglist": {
              "$": "(const QModelIndex &sourceIndex) const"
            }
          },
          {
            "@kind": "function",
            "@virtualness": "virtual",
            "type": {
              "$": "virtual QModelIndexList"
            },
            "name": {
              "$": "match"
            },
            "anchorfile": {
              "$": "classKDescendantsProxyModel.html"
            },
            "anchor": {
              "$": "a726317fcc68729884ee98d40a67ffff4"
            },
            "arglist": {
              "$": "(const QModelIndex &start, int role, const QVariant &value, int hits=1, Qt::MatchFlags flags=Qt::MatchFlags(Qt::MatchStartsWith|Qt::MatchWrap)) const override"
            }
          },
          {
            "@kind": "function",
            "type": {
              "$": "void"
            },
            "name": {
              "$": "setAncestorSeparator"
            },
            "anchorfile": {
              "$": "classKDescendantsProxyModel.html"
            },
            "anchor": {
              "$": "a51e4610b6004c3f5d38ed055c9b87af0"
            },
            "arglist": {
              "$": "(const QString &separator)"
            }
          },
          {
            "@kind": "function",
            "type": {
              "$": "void"
            },
            "name": {
              "$": "setDisplayAncestorData"
            },
            "anchorfile": {
              "$": "classKDescendantsProxyModel.html"
            },
            "anchor": {
              "$": "a7fdc507c226c884accaea9b3cac2ec6e"
            },
            "arglist": {
              "$": "(bool display)"
            }
          },
          {
            "@kind": "function",
            "type": {
              "$": "void"
            },
            "name": {
              "$": "setExpandsByDefault"
            },
            "anchorfile": {
              "$": "classKDescendantsProxyModel.html"
            },
            "anchor": {
              "$": "aa2a302978882c2893118752d0c26ec40"
            },
            "arglist": {
              "$": "(bool expand)"
            }
          },
          {
            "@kind": "function",
            "type": {
              "$": "void"
            },
            "name": {
              "$": "setRootIndex"
            },
            "anchorfile": {
              "$": "classKDescendantsProxyModel.html"
            },
            "anchor": {
              "$": "a538094968402a1f0d3508d6a9afa2119"
            },
            "arglist": {
              "$": "(const QModelIndex &index)"
            }
          },
          {
            "@kind": "function",
            "type": {
              "$": "void"
            },
            "name": {
              "$": "setSourceModel"
            },
            "anchorfile": {
              "$": "classKDescendantsProxyModel.html"
            },
            "anchor": {
              "$": "abd806ceb6067c30d5b277448a71f0ead"
            },
            "arglist": {
              "$": "(QAbstractItemModel *model) override"
            }
          }
        ]
      },
      {
        "@kind": "class",
        "name": {
          "$": "KExtraColumnsProxyModel"
        },
        "filename": {
          "$": "classKExtraColumnsProxyModel.html"
        },
        "base": {
          "$": "QIdentityProxyModel"
        },
        "member": [
          {
            "@kind": "function",
            "type": {},
            "name": {
              "$": "KExtraColumnsProxyModel"
            },
            "anchorfile": {
              "$": "classKExtraColumnsProxyModel.html"
            },
            "anchor": {
              "$": "abb5eb6048ac1d020d7b7a6180da121fe"
            },
            "arglist": {
              "$": "(QObject *parent=nullptr)"
            }
          },
          {
            "@kind": "function",
            "type": {},
            "name": {
              "$": "~KExtraColumnsProxyModel"
            },
            "anchorfile": {
              "$": "classKExtraColumnsProxyModel.html"
            },
            "anchor": {
              "$": "a909a6829fb5d7f7d556ff73d6ad4ba83"
            },
            "arglist": {
              "$": "() override"
            }
          },
          {
            "@kind": "function",
            "type": {
              "$": "void"
            },
            "name": {
              "$": "appendColumn"
            },
            "anchorfile": {
              "$": "classKExtraColumnsProxyModel.html"
            },
            "anchor": {
              "$": "a43a06ff9cd119be438d6a12d9dc01cd7"
            },
            "arglist": {
              "$": "(const QString &header=QString())"
            }
          },
          {
            "@kind": "function",
            "type": {
              "$": "QModelIndex"
            },
            "name": {
              "$": "buddy"
            },
            "anchorfile": {
              "$": "classKExtraColumnsProxyModel.html"
            },
            "anchor": {
              "$": "aafc84827633670784605c970009b7936"
            },
            "arglist": {
              "$": "(const QModelIndex &index) const override"
            }
          },
          {
            "@kind": "function",
            "type": {
              "$": "int"
            },
            "name": {
              "$": "columnCount"
            },
            "anchorfile": {
              "$": "classKExtraColumnsProxyModel.html"
            },
            "anchor": {
              "$": "a1af410b140306ea5c8db6e7350d37118"
            },
            "arglist": {
              "$": "(const QModelIndex &parent=QModelIndex()) const override"
            }
          },
          {
            "@kind": "function",
            "type": {
              "$": "QVariant"
            },
            "name": {
              "$": "data"
            },
            "anchorfile": {
              "$": "classKExtraColumnsProxyModel.html"
            },
            "anchor": {
              "$": "a868220a779b7124b453940ce3a4c4c2f"
            },
            "arglist": {
              "$": "(const QModelIndex &index, int role=Qt::DisplayRole) const override"
            }
          },
          {
            "@kind": "function",
            "@virtualness": "pure",
            "type": {
              "$": "virtual QVariant"
            },
            "name": {
              "$": "extraColumnData"
            },
            "anchorfile": {
              "$": "classKExtraColumnsProxyModel.html"
            },
            "anchor": {
              "$": "af43091f6935231396c77736933f9fa8f"
            },
            "arglist": {
              "$": "(const QModelIndex &parent, int row, int extraColumn, int role=Qt::DisplayRole) const =0"
            }
          },
          {
            "@kind": "function",
            "type": {
              "$": "void"
            },
            "name": {
              "$": "extraColumnDataChanged"
            },
            "anchorfile": {
              "$": "classKExtraColumnsProxyModel.html"
            },
            "anchor": {
              "$": "ac9ff6d56fb14f94eb71c120c7a662add"
            },
            "arglist": {
              "$": "(const QModelIndex &parent, int row, int extraColumn, const QVector< int > &roles)"
            }
          },
          {
            "@kind": "function",
            "type": {
              "$": "int"
            },
            "name": {
              "$": "extraColumnForProxyColumn"
            },
            "anchorfile": {
              "$": "classKExtraColumnsProxyModel.html"
            },
            "anchor": {
              "$": "a595def01bf0f5e6a5267db8dafd9b387"
            },
            "arglist": {
              "$": "(int proxyColumn) const"
            }
          },
          {
            "@kind": "function",
            "type": {
              "$": "Qt::ItemFlags"
            },
            "name": {
              "$": "flags"
            },
            "anchorfile": {
              "$": "classKExtraColumnsProxyModel.html"
            },
            "anchor": {
              "$": "ae5f44109aabbbd1f55e4492733abfa4a"
            },
            "arglist": {
              "$": "(const QModelIndex &index) const override"
            }
          },
          {
            "@kind": "function",
            "type": {
              "$": "bool"
            },
            "name": {
              "$": "hasChildren"
            },
            "anchorfile": {
              "$": "classKExtraColumnsProxyModel.html"
            },
            "anchor": {
              "$": "a6e5370662892f12aa18d3f4dc938cad8"
            },
            "arglist": {
              "$": "(const QModelIndex &index) const override"
            }
          },
          {
            "@kind": "function",
            "type": {
              "$": "QVariant"
            },
            "name": {
              "$": "headerData"
            },
            "anchorfile": {
              "$": "classKExtraColumnsProxyModel.html"
            },
            "anchor": {
              "$": "a4b31d7401358e31542699c2f99e6dad3"
            },
            "arglist": {
              "$": "(int section, Qt::Orientation orientation, int role=Qt::DisplayRole) const override"
            }
          },
          {
            "@kind": "function",
            "type": {
              "$": "QModelIndex"
            },
            "name": {
              "$": "index"
            },
            "anchorfile": {
              "$": "classKExtraColumnsProxyModel.html"
            },
            "anchor": {
              "$": "af3f99473e4e47f217e016bf3dbbc433f"
            },
            "arglist": {
              "$": "(int row, int column, const QModelIndex &parent=QModelIndex()) const override"
            }
          },
          {
            "@kind": "function",
            "type": {
              "$": "QItemSelection"
            },
            "name": {
              "$": "mapSelectionToSource"
            },
            "anchorfile": {
              "$": "classKExtraColumnsProxyModel.html"
            },
            "anchor": {
              "$": "a4ae0c157b7c7d27b2b2695245218f838"
            },
            "arglist": {
              "$": "(const QItemSelection &selection) const override"
            }
          },
          {
            "@kind": "function",
            "type": {
              "$": "QModelIndex"
            },
            "name": {
              "$": "mapToSource"
            },
            "anchorfile": {
              "$": "classKExtraColumnsProxyModel.html"
            },
            "anchor": {
              "$": "a6680a102ab6517ec5e6a6ec82d4be0af"
            },
            "arglist": {
              "$": "(const QModelIndex &proxyIndex) const override"
            }
          },
          {
            "@kind": "function",
            "type": {
              "$": "QModelIndex"
            },
            "name": {
              "$": "parent"
            },
            "anchorfile": {
              "$": "classKExtraColumnsProxyModel.html"
            },
            "anchor": {
              "$": "a1feec87ba0872de0a0416cee944ab5bf"
            },
            "arglist": {
              "$": "(const QModelIndex &child) const override"
            }
          },
          {
            "@kind": "function",
            "type": {
              "$": "int"
            },
            "name": {
              "$": "proxyColumnForExtraColumn"
            },
            "anchorfile": {
              "$": "classKExtraColumnsProxyModel.html"
            },
            "anchor": {
              "$": "a9c24ec5fcddf34635a79fb269c69be43"
            },
            "arglist": {
              "$": "(int extraColumn) const"
            }
          },
          {
            "@kind": "function",
            "type": {
              "$": "void"
            },
            "name": {
              "$": "removeExtraColumn"
            },
            "anchorfile": {
              "$": "classKExtraColumnsProxyModel.html"
            },
            "anchor": {
              "$": "a08d3dc9f834005d66021f7c869f74648"
            },
            "arglist": {
              "$": "(int idx)"
            }
          },
          {
            "@kind": "function",
            "type": {
              "$": "bool"
            },
            "name": {
              "$": "setData"
            },
            "anchorfile": {
              "$": "classKExtraColumnsProxyModel.html"
            },
            "anchor": {
              "$": "abc3fbad398d5f2c69dae09c3bfb4bbd0"
            },
            "arglist": {
              "$": "(const QModelIndex &index, const QVariant &value, int role=Qt::EditRole) override"
            }
          },
          {
            "@kind": "function",
            "@virtualness": "virtual",
            "type": {
              "$": "virtual bool"
            },
            "name": {
              "$": "setExtraColumnData"
            },
            "anchorfile": {
              "$": "classKExtraColumnsProxyModel.html"
            },
            "anchor": {
              "$": "aa3363ea5cfc8d802b4572fd7941f3b66"
            },
            "arglist": {
              "$": "(const QModelIndex &parent, int row, int extraColumn, const QVariant &data, int role=Qt::EditRole)"
            }
          },
          {
            "@kind": "function",
            "type": {
              "$": "void"
            },
            "name": {
              "$": "setSourceModel"
            },
            "anchorfile": {
              "$": "classKExtraColumnsProxyModel.html"
            },
            "anchor": {
              "$": "a3f88bcccd24d88d4e30e0cb03a1f3a4a"
            },
            "arglist": {
              "$": "(QAbstractItemModel *model) override"
            }
          },
          {
            "@kind": "function",
            "type": {
              "$": "QModelIndex"
            },
            "name": {
              "$": "sibling"
            },
            "anchorfile": {
              "$": "classKExtraColumnsProxyModel.html"
            },
            "anchor": {
              "$": "a3362e19c84411dfdb1b883fd3db20924"
            },
            "arglist": {
              "$": "(int row, int column, const QModelIndex &idx) const override"
            }
          }
        ]
      },
      {
        "@kind": "class",
        "name": {
          "$": "KLinkItemSelectionModel"
        },
        "filename": {
          "$": "classKLinkItemSelectionModel.html"
        },
        "base": {
          "$": "QItemSelectionModel"
        },
        "member": {
          "@kind": "function",
          "type": {},
          "name": {
            "$": "KLinkItemSelectionModel"
          },
          "anchorfile": {
            "$": "classKLinkItemSelectionModel.html"
          },
          "anchor": {
            "$": "a210a41aafc94e962ed64a32dde57fcce"
          },
          "arglist": {
            "$": "(QAbstractItemModel *targetModel, QItemSelectionModel *linkedItemSelectionModel, QObject *parent=nullptr)"
          }
        }
      },
      {
        "@kind": "class",
        "name": {
          "$": "KModelIndexProxyMapper"
        },
        "filename": {
          "$": "classKModelIndexProxyMapper.html"
        },
        "base": {
          "$": "QObject"
        },
        "member": [
          {
            "@kind": "property",
            "type": {
              "$": "bool"
            },
            "name": {
              "$": "isConnected"
            },
            "anchorfile": {
              "$": "classKModelIndexProxyMapper.html"
            },
            "anchor": {
              "$": "a4f93cac9398063314fd59c7f4e0ca3fb"
            },
            "arglist": {}
          },
          {
            "@kind": "function",
            "type": {},
            "name": {
              "$": "KModelIndexProxyMapper"
            },
            "anchorfile": {
              "$": "classKModelIndexProxyMapper.html"
            },
            "anchor": {
              "$": "a7852d7ae79dfb00a21b001809a978344"
            },
            "arglist": {
              "$": "(const QAbstractItemModel *leftModel, const QAbstractItemModel *rightModel, QObject *parent=nullptr)"
            }
          },
          {
            "@kind": "function",
            "type": {
              "$": "QModelIndex"
            },
            "name": {
              "$": "mapLeftToRight"
            },
            "anchorfile": {
              "$": "classKModelIndexProxyMapper.html"
            },
            "anchor": {
              "$": "a9909699ce1972ee126553187522a1366"
            },
            "arglist": {
              "$": "(const QModelIndex &index) const"
            }
          },
          {
            "@kind": "function",
            "type": {
              "$": "QModelIndex"
            },
            "name": {
              "$": "mapRightToLeft"
            },
            "anchorfile": {
              "$": "classKModelIndexProxyMapper.html"
            },
            "anchor": {
              "$": "ad7c92673bd85422bffd773d59a635f3f"
            },
            "arglist": {
              "$": "(const QModelIndex &index) const"
            }
          },
          {
            "@kind": "function",
            "type": {
              "$": "QItemSelection"
            },
            "name": {
              "$": "mapSelectionLeftToRight"
            },
            "anchorfile": {
              "$": "classKModelIndexProxyMapper.html"
            },
            "anchor": {
              "$": "a1a15c085d9b6250b7995ea77115e3a07"
            },
            "arglist": {
              "$": "(const QItemSelection &selection) const"
            }
          },
          {
            "@kind": "function",
            "type": {
              "$": "QItemSelection"
            },
            "name": {
              "$": "mapSelectionRightToLeft"
            },
            "anchorfile": {
              "$": "classKModelIndexProxyMapper.html"
            },
            "anchor": {
              "$": "ac776d7431e8f6ec06b35bfe69cdb83d7"
            },
            "arglist": {
              "$": "(const QItemSelection &selection) const"
            }
          }
        ]
      },
      {
        "@kind": "class",
        "name": {
          "$": "KNumberModel"
        },
        "filename": {
          "$": "classKNumberModel.html"
        },
        "base": {
          "$": "QAbstractListModel"
        },
        "member": [
          {
            "@kind": "property",
            "type": {
              "$": "QLocale::NumberOptions"
            },
            "name": {
              "$": "formattingOptions"
            },
            "anchorfile": {
              "$": "classKNumberModel.html"
            },
            "anchor": {
              "$": "a3d6449ea7f7ab2c72103ceaa28fb0039"
            },
            "arglist": {}
          },
          {
            "@kind": "property",
            "type": {
              "$": "qreal"
            },
            "name": {
              "$": "maximumValue"
            },
            "anchorfile": {
              "$": "classKNumberModel.html"
            },
            "anchor": {
              "$": "ac2ec6e12ffd7e115eaed33d1e5ae29d9"
            },
            "arglist": {}
          },
          {
            "@kind": "property",
            "type": {
              "$": "qreal"
            },
            "name": {
              "$": "minimumValue"
            },
            "anchorfile": {
              "$": "classKNumberModel.html"
            },
            "anchor": {
              "$": "a29546cb3f1e43e52fdfe1c0e60bc05d7"
            },
            "arglist": {}
          },
          {
            "@kind": "property",
            "type": {
              "$": "qreal"
            },
            "name": {
              "$": "stepSize"
            },
            "anchorfile": {
              "$": "classKNumberModel.html"
            },
            "anchor": {
              "$": "a63be3490315606c3f0ed16437413cc83"
            },
            "arglist": {}
          },
          {
            "@kind": "function",
            "type": {
              "$": "qreal"
            },
            "name": {
              "$": "value"
            },
            "anchorfile": {
              "$": "classKNumberModel.html"
            },
            "anchor": {
              "$": "a583caa3640be361e81acdcf582ccc5f3"
            },
            "arglist": {
              "$": "(const QModelIndex &index) const"
            }
          }
        ]
      },
      {
        "@kind": "class",
        "name": {
          "$": "KRearrangeColumnsProxyModel"
        },
        "filename": {
          "$": "classKRearrangeColumnsProxyModel.html"
        },
        "base": {
          "$": "QIdentityProxyModel"
        },
        "member": [
          {
            "@kind": "function",
            "type": {},
            "name": {
              "$": "KRearrangeColumnsProxyModel"
            },
            "anchorfile": {
              "$": "classKRearrangeColumnsProxyModel.html"
            },
            "anchor": {
              "$": "a017e1c30cac216f1ad97d5e6ca03337d"
            },
            "arglist": {
              "$": "(QObject *parent=nullptr)"
            }
          },
          {
            "@kind": "function",
            "type": {},
            "name": {
              "$": "~KRearrangeColumnsProxyModel"
            },
            "anchorfile": {
              "$": "classKRearrangeColumnsProxyModel.html"
            },
            "anchor": {
              "$": "ac7f601b8847b4ddbaea8586899f84abd"
            },
            "arglist": {
              "$": "() override"
            }
          },
          {
            "@kind": "function",
            "type": {
              "$": "int"
            },
            "name": {
              "$": "columnCount"
            },
            "anchorfile": {
              "$": "classKRearrangeColumnsProxyModel.html"
            },
            "anchor": {
              "$": "a96fca4ded42d5d5496f44585000ed23d"
            },
            "arglist": {
              "$": "(const QModelIndex &parent=QModelIndex()) const override"
            }
          },
          {
            "@kind": "function",
            "type": {
              "$": "bool"
            },
            "name": {
              "$": "hasChildren"
            },
            "anchorfile": {
              "$": "classKRearrangeColumnsProxyModel.html"
            },
            "anchor": {
              "$": "aaeeb881885f98e987dfac8deda078839"
            },
            "arglist": {
              "$": "(const QModelIndex &parent=QModelIndex()) const override"
            }
          },
          {
            "@kind": "function",
            "type": {
              "$": "QVariant"
            },
            "name": {
              "$": "headerData"
            },
            "anchorfile": {
              "$": "classKRearrangeColumnsProxyModel.html"
            },
            "anchor": {
              "$": "a58e422a4a5383919ee3aeb5995f7f545"
            },
            "arglist": {
              "$": "(int section, Qt::Orientation orientation, int role=Qt::DisplayRole) const override"
            }
          },
          {
            "@kind": "function",
            "type": {
              "$": "QModelIndex"
            },
            "name": {
              "$": "index"
            },
            "anchorfile": {
              "$": "classKRearrangeColumnsProxyModel.html"
            },
            "anchor": {
              "$": "aea9910f732576da30ad33712a97fc988"
            },
            "arglist": {
              "$": "(int row, int column, const QModelIndex &parent=QModelIndex()) const override"
            }
          },
          {
            "@kind": "function",
            "type": {
              "$": "QModelIndex"
            },
            "name": {
              "$": "mapFromSource"
            },
            "anchorfile": {
              "$": "classKRearrangeColumnsProxyModel.html"
            },
            "anchor": {
              "$": "ab85455ebe70cfea99892b2b4aefbf791"
            },
            "arglist": {
              "$": "(const QModelIndex &sourceIndex) const override"
            }
          },
          {
            "@kind": "function",
            "type": {
              "$": "QModelIndex"
            },
            "name": {
              "$": "mapToSource"
            },
            "anchorfile": {
              "$": "classKRearrangeColumnsProxyModel.html"
            },
            "anchor": {
              "$": "a489cc688b2f5012557265eede188dbcc"
            },
            "arglist": {
              "$": "(const QModelIndex &proxyIndex) const override"
            }
          },
          {
            "@kind": "function",
            "type": {
              "$": "QModelIndex"
            },
            "name": {
              "$": "parent"
            },
            "anchorfile": {
              "$": "classKRearrangeColumnsProxyModel.html"
            },
            "anchor": {
              "$": "ab18fbda958568f52a897ad085ea90dc7"
            },
            "arglist": {
              "$": "(const QModelIndex &child) const override"
            }
          },
          {
            "@kind": "function",
            "type": {
              "$": "int"
            },
            "name": {
              "$": "proxyColumnForSourceColumn"
            },
            "anchorfile": {
              "$": "classKRearrangeColumnsProxyModel.html"
            },
            "anchor": {
              "$": "a970765b5a238bc51f28af45839155c05"
            },
            "arglist": {
              "$": "(int sourceColumn) const"
            }
          },
          {
            "@kind": "function",
            "type": {
              "$": "int"
            },
            "name": {
              "$": "rowCount"
            },
            "anchorfile": {
              "$": "classKRearrangeColumnsProxyModel.html"
            },
            "anchor": {
              "$": "a6da8d5b3f77b60146fa8131261a850b9"
            },
            "arglist": {
              "$": "(const QModelIndex &parent=QModelIndex()) const override"
            }
          },
          {
            "@kind": "function",
            "type": {
              "$": "void"
            },
            "name": {
              "$": "setSourceColumns"
            },
            "anchorfile": {
              "$": "classKRearrangeColumnsProxyModel.html"
            },
            "anchor": {
              "$": "a3bdeceba3be0efaa809820b4a62ffa02"
            },
            "arglist": {
              "$": "(const QVector< int > &columns)"
            }
          },
          {
            "@kind": "function",
            "type": {
              "$": "QModelIndex"
            },
            "name": {
              "$": "sibling"
            },
            "anchorfile": {
              "$": "classKRearrangeColumnsProxyModel.html"
            },
            "anchor": {
              "$": "a303fbad12f1b03088ab590ed03e9fd5d"
            },
            "arglist": {
              "$": "(int row, int column, const QModelIndex &idx) const override"
            }
          },
          {
            "@kind": "function",
            "type": {
              "$": "int"
            },
            "name": {
              "$": "sourceColumnForProxyColumn"
            },
            "anchorfile": {
              "$": "classKRearrangeColumnsProxyModel.html"
            },
            "anchor": {
              "$": "a1d24606de6c27b64b8984f77b2bb81ec"
            },
            "arglist": {
              "$": "(int proxyColumn) const"
            }
          }
        ]
      },
      {
        "@kind": "class",
        "name": {
          "$": "KRecursiveFilterProxyModel"
        },
        "filename": {
          "$": "classKRecursiveFilterProxyModel.html"
        },
        "base": {
          "$": "QSortFilterProxyModel"
        },
        "member": [
          {
            "@kind": "function",
            "type": {},
            "name": {
              "$": "KRecursiveFilterProxyModel"
            },
            "anchorfile": {
              "$": "classKRecursiveFilterProxyModel.html"
            },
            "anchor": {
              "$": "afe526b5d13ee6a4f903b10cc685fe33c"
            },
            "arglist": {
              "$": "(QObject *parent=nullptr)"
            }
          },
          {
            "@kind": "function",
            "type": {},
            "name": {
              "$": "~KRecursiveFilterProxyModel"
            },
            "anchorfile": {
              "$": "classKRecursiveFilterProxyModel.html"
            },
            "anchor": {
              "$": "ab839e3cb51b923425917bb43bd55679f"
            },
            "arglist": {
              "$": "() override"
            }
          },
          {
            "@kind": "function",
            "type": {
              "$": "QModelIndexList"
            },
            "name": {
              "$": "match"
            },
            "anchorfile": {
              "$": "classKRecursiveFilterProxyModel.html"
            },
            "anchor": {
              "$": "a2bed7d16ff319e7241fd03158bcb6f07"
            },
            "arglist": {
              "$": "(const QModelIndex &start, int role, const QVariant &value, int hits=1, Qt::MatchFlags flags=Qt::MatchFlags(Qt::MatchStartsWith|Qt::MatchWrap)) const override"
            }
          },
          {
            "@kind": "function",
            "type": {
              "$": "void"
            },
            "name": {
              "$": "setSourceModel"
            },
            "anchorfile": {
              "$": "classKRecursiveFilterProxyModel.html"
            },
            "anchor": {
              "$": "a8d1dde01d9009e756ac0f5c03046bb94"
            },
            "arglist": {
              "$": "(QAbstractItemModel *model) override"
            }
          },
          {
            "@kind": "function",
            "@protection": "protected",
            "@virtualness": "virtual",
            "type": {
              "$": "virtual bool"
            },
            "name": {
              "$": "acceptRow"
            },
            "anchorfile": {
              "$": "classKRecursiveFilterProxyModel.html"
            },
            "anchor": {
              "$": "aeee9b6a0b2cfef9f70a00e86e55ab3ee"
            },
            "arglist": {
              "$": "(int sourceRow, const QModelIndex &sourceParent) const"
            }
          },
          {
            "@kind": "function",
            "@protection": "protected",
            "type": {
              "$": "bool"
            },
            "name": {
              "$": "filterAcceptsRow"
            },
            "anchorfile": {
              "$": "classKRecursiveFilterProxyModel.html"
            },
            "anchor": {
              "$": "a3341d88e958ffd798e04a42cb00a7a01"
            },
            "arglist": {
              "$": "(int sourceRow, const QModelIndex &sourceParent) const override"
            }
          }
        ]
      },
      {
        "@kind": "class",
        "name": {
          "$": "KSelectionProxyModel"
        },
        "filename": {
          "$": "classKSelectionProxyModel.html"
        },
        "base": {
          "$": "QAbstractProxyModel"
        },
        "member": [
          {
            "@kind": "signal",
            "type": {
              "$": "void"
            },
            "name": {
              "$": "rootIndexAboutToBeRemoved"
            },
            "anchorfile": {
              "$": "classKSelectionProxyModel.html"
            },
            "anchor": {
              "$": "aec00ac106e04f1d528f07a2420c7742f"
            },
            "arglist": {
              "$": "(const QModelIndex &removeRootIndex, QPrivateSignal)"
            }
          },
          {
            "@kind": "signal",
            "type": {
              "$": "void"
            },
            "name": {
              "$": "rootIndexAdded"
            },
            "anchorfile": {
              "$": "classKSelectionProxyModel.html"
            },
            "anchor": {
              "$": "a40a265e8fb7c9b1286514eca53f97401"
            },
            "arglist": {
              "$": "(const QModelIndex &newIndex, QPrivateSignal)"
            }
          },
          {
            "@kind": "signal",
            "type": {
              "$": "void"
            },
            "name": {
              "$": "rootSelectionAboutToBeRemoved"
            },
            "anchorfile": {
              "$": "classKSelectionProxyModel.html"
            },
            "anchor": {
              "$": "add3556bd0dc9bdc32cfb851796229319"
            },
            "arglist": {
              "$": "(const QItemSelection &selection, QPrivateSignal)"
            }
          },
          {
            "@kind": "signal",
            "type": {
              "$": "void"
            },
            "name": {
              "$": "rootSelectionAdded"
            },
            "anchorfile": {
              "$": "classKSelectionProxyModel.html"
            },
            "anchor": {
              "$": "a8579797a69a25ff7ea1a150b48680db6"
            },
            "arglist": {
              "$": "(const QItemSelection &selection, QPrivateSignal)"
            }
          },
          {
            "@kind": "function",
            "type": {},
            "name": {
              "$": "KSelectionProxyModel"
            },
            "anchorfile": {
              "$": "classKSelectionProxyModel.html"
            },
            "anchor": {
              "$": "a6f5ba38655072237e0dc63c5596586d4"
            },
            "arglist": {
              "$": "()"
            }
          },
          {
            "@kind": "function",
            "type": {},
            "name": {
              "$": "KSelectionProxyModel"
            },
            "anchorfile": {
              "$": "classKSelectionProxyModel.html"
            },
            "anchor": {
              "$": "ae5978394cdeaab78a9628c42c733f135"
            },
            "arglist": {
              "$": "(QItemSelectionModel *selectionModel, QObject *parent=nullptr)"
            }
          },
          {
            "@kind": "function",
            "type": {},
            "name": {
              "$": "~KSelectionProxyModel"
            },
            "anchorfile": {
              "$": "classKSelectionProxyModel.html"
            },
            "anchor": {
              "$": "aa6dad17c33f61e6b1981baccfc804de4"
            },
            "arglist": {
              "$": "() override"
            }
          },
          {
            "@kind": "function",
            "type": {
              "$": "void"
            },
            "name": {
              "$": "setFilterBehavior"
            },
            "anchorfile": {
              "$": "classKSelectionProxyModel.html"
            },
            "anchor": {
              "$": "a8969c5b6f871b1c8f26fed2c24635964"
            },
            "arglist": {
              "$": "(FilterBehavior behavior)"
            }
          },
          {
            "@kind": "function",
            "type": {
              "$": "void"
            },
            "name": {
              "$": "setSourceModel"
            },
            "anchorfile": {
              "$": "classKSelectionProxyModel.html"
            },
            "anchor": {
              "$": "a8df9a643cb899c9db967611c11cd63e8"
            },
            "arglist": {
              "$": "(QAbstractItemModel *sourceModel) override"
            }
          }
        ]
      },
      {
        "@kind": "class",
        "name": {
          "$": "SortFilterModel"
        },
        "filename": {
          "$": "classSortFilterModel.html"
        }
      },
      {
        "@kind": "page",
        "name": {
          "$": "index"
        },
        "title": {
          "$": "KItemModels"
        },
        "filename": {
          "$": "index"
        }
      }
    ]
  }
}